{
  "type": "service_account",
  "project_id": "eazey-ca",
  "private_key_id": "49bd6821269687803d4ceb9b58f866cf3f86630e",
  "private_key": "-----BEGIN PRIVATE KEY-----\nMIIEvAIBADANBgkqhkiG9w0BAQEFAASCBKYwggSiAgEAAoIBAQDHOC3Q8ExYke3n\nm7RLX3Biu/IIkc/YxxcYqoJbJgFfbE4QsbX/38WUTH+BqteTAorqUNi2ttxbzNdx\ndiQipcDSl1IFDLiNnuzlXBd9nyn8iP3D7dkM+LOGkkjQd8l7Cyp1AX1Aj3iHPHGn\nBRKSpZhyZB/K0Dvq1Y14rCHpZBfJSw3Ep83JQ1L1YV8F7V+ymOHejdqYRP4Mp3TC\nE+GSrGpujHM4etNpJdUD8vYTtOqN1cpAuAJ7L2d6Z3nQ5MqLJBo5iBNCQODHW1r6\n81yMBnTI9lKHFXcfMDsLB9PlMmUXTc97Y6C3+e9bS84Tee9DPkMSIp5tAW4HXTN6\nM+47WmtxAgMBAAECggEACh9epJkxJ+byUaxlsta8nSezmp/eEcO79rLjQMJjm3ej\nV9HPz5qNLYXdjLcjkQK2EEXfXRlZhQiZgdhg6anGbGzn6/3Det6yZs0RHH7z4TMM\nweHZ/4C7joDsVjtf73KXy64xsRAZLbXyiGwHj4/+eQGBZArEoKANOi504qkFVGL2\n1wCA9RdSiCN6qgHkWKrUu8vcIbV96LsmzPOlJvheb1lZNLAojCti/sbqScOADUg9\nDrRzK1/KVo519K4UZnpTW+a4aFQU2RVg1ovtJKucJ72aNpxqH2ODoikLVKUJwOEV\nHL5cWz4mmIZM7xAO4Nfi3JoSLQUiaZsa4FLXyDBZyQKBgQD492Jm6JOdCcBzQ4BE\n1Y1m0HTfv1yRpAiRC9o7LmOAJzYuBNwjjmLo1e0V6O8VE4+6JWHGrC/ceL3tWuoF\nIxQKD8r/tHaq6otTrZxJrTBT5AtceX6fNWvMCEv/rzix6hn20jGtOrq1o7sn199I\njX6BZ4BenJbwbFDIEsrwiT26TwKBgQDM2QHA2tJ861H7yhI1kthTpVh8V1KK/RC0\nCktS2yxc2M4AeIzpBpYXN969hTI+lcX1vgvTk7qu9UzzFKaVszFJV40U22XfXQad\n/I+GcokwKm7iqeiVgbQ1/jkGDQxtYPQKB3yXRHkMnYMBw+hNJ+3nwowz5CZEgY/+\n5dE6WWLOPwKBgCw92dCrt7+KQha5ggu5Xz1MAdjY6pw+5/7OemNV5Pya+zfGSVBQ\nNydlDJJ+KC44oavUhMGHS6IEGswZAckT6LW5BLvX19abg1LFYSZ+jj36IkK2nFey\naIuDVe4DtzF2hlKkG4vLCe7JP7Le26DK9BYOzHMDpJboyJolLMb9vGhlAoGABbK3\noMS1fDITirx5OzJFgDYmOvc23ZTihQ+QPtLH7iE9wbeYu9aqECVGteDhn+oMoqRR\nseX3GGzMYiqd46YjZdXgn8bmk4sD5xsiZuwCsutLQFTXmmkMOUBEF83/HX/H6guB\nRLfr4hTzkvX/HT5SGNNJkRv0kI1GEyITatsXq4MCgYAwBUoJg8bEwk8kWin0nJq/\nhY84Z15Ew8EStccUlXcmToTFK5nDtPspj9OzR8aDjTRlepPLSpjNl92g3NuND4WV\nPIufmjyfT+5IjR9g7Jgw39rGkH+Yz8LIqsy7TE76EQm7u0bqlBFesHmftFugb+Qx\ntgd2RXGX8GP6+knyMs++6g==\n-----END PRIVATE KEY-----\n",
  "client_email": "firebase-adminsdk-0ck01@eazey-ca.iam.gserviceaccount.com",
  "client_id": "117001094533296315368",
  "auth_uri": "https://accounts.google.com/o/oauth2/auth",
  "token_uri": "https://oauth2.googleapis.com/token",
  "auth_provider_x509_cert_url": "https://www.googleapis.com/oauth2/v1/certs",
  "client_x509_cert_url": "https://www.googleapis.com/robot/v1/metadata/x509/firebase-adminsdk-0ck01%40eazey-ca.iam.gserviceaccount.com"
}
